Computer Architecture/Lab 3/lab3/log/waveform_1.vcd
$date
	Mon Dec 18 15:55:27 2023
$end
$version
	Icarus Verilog
$end
$timescale
	1s
$end
$scope module TestBench $end
$var reg 1 ! Clk $end
$var reg 1 " Reset $end
$var integer 32 # counter [31:0] $end
$var integer 32 $ i [31:0] $end
$var integer 32 % outfile [31:0] $end
$scope module CPU $end
$var wire 32 & ALU_data1_in [31:0] $end
$var wire 1 ! clk_i $end
$var wire 1 " rst_i $end
$var wire 32 ' target_PC [31:0] $end
$var wire 32 ( rs2_data [31:0] $end
$var wire 5 ) rs2_addr [4:0] $end
$var wire 32 * rs1_data [31:0] $end
$var wire 5 + rs1_addr [4:0] $end
$var wire 32 , rd_data [31:0] $end
$var wire 5 - rd_addr [4:0] $end
$var wire 1 . predict $end
$var wire 7 / opcode [6:0] $end
$var wire 1 0 mispredict $end
$var wire 32 1 memory_data [31:0] $end
$var wire 32 2 instruction [31:0] $end
$var wire 32 3 immediate [31:0] $end
$var wire 7 4 funct7 [6:0] $end
$var wire 3 5 funct3 [2:0] $end
$var wire 32 6 adder_PC [31:0] $end
$var wire 1 7 Zero $end
$var wire 1 8 Stall $end
$var wire 1 9 RegWrite $end
$var wire 32 : PC_temp [31:0] $end
$var wire 32 ; PC_rollback [31:0] $end
$var wire 32 < PC_o [31:0] $end
$var wire 32 = PC_i [31:0] $end
$var wire 1 > PCWrite $end
$var wire 1 ? Noop $end
$var wire 1 @ MemtoReg $end
$var wire 1 A MemWrite $end
$var wire 1 B MemRead $end
$var wire 5 C MEMWB_rd_addr [4:0] $end
$var wire 32 D MEMWB_memory_data [31:0] $end
$var wire 1 E MEMWB_RegWrite $end
$var wire 1 F MEMWB_MemtoReg $end
$var wire 32 G MEMWB_ALU_data [31:0] $end
$var wire 32 H IFID_instruction [31:0] $end
$var wire 32 I IFID_PC [31:0] $end
$var wire 32 J IDEX_rs2_data [31:0] $end
$var wire 5 K IDEX_rs2_addr [4:0] $end
$var wire 32 L IDEX_rs1_data [31:0] $end
$var wire 5 M IDEX_rs1_addr [4:0] $end
$var wire 5 N IDEX_rd_addr [4:0] $end
$var wire 1 O IDEX_predict $end
$var wire 32 P IDEX_immediate [31:0] $end
$var wire 7 Q IDEX_funct7 [6:0] $end
$var wire 3 R IDEX_funct3 [2:0] $end
$var wire 1 S IDEX_RegWrite $end
$var wire 32 T IDEX_PC [31:0] $end
$var wire 1 U IDEX_MemtoReg $end
$var wire 1 V IDEX_MemWrite $end
$var wire 1 W IDEX_MemRead $end
$var wire 1 X IDEX_Branch $end
$var wire 1 Y IDEX_ALUSrc $end
$var wire 2 Z IDEX_ALUOp [1:0] $end
$var wire 32 [ ForwardB_data [31:0] $end
$var wire 2 \ ForwardB [1:0] $end
$var wire 32 ] ForwardA_data [31:0] $end
$var wire 2 ^ ForwardA [1:0] $end
$var wire 32 _ EXMEM_rs2_data [31:0] $end
$var wire 5 ` EXMEM_rd_addr [4:0] $end
$var wire 1 a EXMEM_RegWrite $end
$var wire 1 b EXMEM_MemtoReg $end
$var wire 1 c EXMEM_MemWrite $end
$var wire 1 d EXMEM_MemRead $end
$var wire 32 e EXMEM_ALU_data [31:0] $end
$var wire 1 f Branch $end
$var wire 32 g ALU_data_out [31:0] $end
$var wire 32 h ALU_data2_in [31:0] $end
$var wire 1 i ALUSrc $end
$var wire 2 j ALUOp [1:0] $end
$var wire 4 k ALUCtr [3:0] $end
$scope module ALU $end
$var wire 32 l data1_i [31:0] $end
$var wire 5 m shamt [4:0] $end
$var wire 32 n data2_i [31:0] $end
$var wire 1 7 Zero_o $end
$var wire 4 o ALUCtr_i [3:0] $end
$var reg 32 p data_o [31:0] $end
$upscope $end
$scope module ALUControl $end
$var wire 7 q funct7_i [6:0] $end
$var wire 3 r funct3_i [2:0] $end
$var wire 2 s ALUOp_i [1:0] $end
$var reg 4 t ALUCtr_o [3:0] $end
$upscope $end
$scope module Adder_PC_nontaken $end
$var wire 32 u data2_i [31:0] $end
$var wire 32 v data_o [31:0] $end
$var wire 32 w data1_i [31:0] $end
$upscope $end
$scope module Adder_PC_taken $end
$var wire 32 x data2_i [31:0] $end
$var wire 32 y data_o [31:0] $end
$var wire 32 z data1_i [31:0] $end
$upscope $end
$scope module Control $end
$var wire 7 { opcode_i [6:0] $end
$var wire 1 ? Noop_i $end
$var reg 2 | ALUOp_o [1:0] $end
$var reg 1 i ALUSrc_o $end
$var reg 1 f Branch_o $end
$var reg 1 B MemRead_o $end
$var reg 1 A MemWrite_o $end
$var reg 1 @ MemtoReg_o $end
$var reg 1 9 RegWrite_o $end
$upscope $end
$scope module Control_Hazard_Detection $end
$var wire 1 7 Zero_i $end
$var wire 1 O IDEX_prediction_i $end
$var wire 32 } IDEX_immediate_i [31:0] $end
$var wire 32 ~ IDEX_PC_i [31:0] $end
$var wire 1 X IDEX_Branch_i $end
$var reg 32 !" PC_rollback_o [31:0] $end
$var reg 1 0 mispredict_o $end
$upscope $end
$scope module Data_Hazard_Detection $end
$var wire 5 "" IFID_rs1_i [4:0] $end
$var wire 5 #" IFID_rs2_i [4:0] $end
$var wire 5 $" IDEX_rd_i [4:0] $end
$var wire 1 W IDEX_MemRead_i $end
$var reg 1 ? Noop_o $end
$var reg 1 > PC_Write_o $end
$var reg 1 8 Stall_o $end
$upscope $end
$scope module Data_Memory $end
$var wire 1 ! clk_i $end
$var wire 32 %" data_o [31:0] $end
$var wire 32 &" data_i [31:0] $end
$var wire 32 '" addr_i [31:0] $end
$var wire 1 c MemWrite_i $end
$var wire 1 d MemRead_i $end
$upscope $end
$scope module EXMEM_Register $end
$var wire 32 (" ALU_data_i [31:0] $end
$var wire 1 ! clk_i $end
$var wire 32 )" rs2_data_i [31:0] $end
$var wire 5 *" rd_addr_i [4:0] $end
$var wire 1 S RegWrite_i $end
$var wire 1 U MemtoReg_i $end
$var wire 1 V MemWrite_i $end
$var wire 1 W MemRead_i $end
$var reg 32 +" ALU_data_o [31:0] $end
$var reg 1 d MemRead_o $end
$var reg 1 c MemWrite_o $end
$var reg 1 b MemtoReg_o $end
$var reg 1 a RegWrite_o $end
$var reg 5 ," rd_addr_o [4:0] $end
$var reg 32 -" rs2_data_o [31:0] $end
$upscope $end
$scope module ForwardingUnit $end
$var wire 1 a EXMEM_RegWrite_i $end
$var wire 5 ." EXMEM_rd_i [4:0] $end
$var wire 5 /" MEMWB_rd_i [4:0] $end
$var wire 1 E MEMWB_RegWrite_i $end
$var wire 5 0" IDEX_rs2_i [4:0] $end
$var wire 5 1" IDEX_rs1_i [4:0] $end
$var reg 2 2" ForwardA_o [1:0] $end
$var reg 2 3" ForwardB_o [1:0] $end
$upscope $end
$scope module ID_EX $end
$var wire 2 4" ALUOp_i [1:0] $end
$var wire 1 i ALUSrc_i $end
$var wire 1 f Branch_i $end
$var wire 1 0 Flush_i $end
$var wire 1 B MemRead_i $end
$var wire 1 A MemWrite_i $end
$var wire 1 @ MemtoReg_i $end
$var wire 1 9 RegWrite_i $end
$var wire 1 ! clk_i $end
$var wire 3 5" funct3_i [2:0] $end
$var wire 7 6" funct7_i [6:0] $end
$var wire 5 7" rd_addr_i [4:0] $end
$var wire 5 8" rs1_addr_i [4:0] $end
$var wire 5 9" rs2_addr_i [4:0] $end
$var wire 32 :" rs2_data_i [31:0] $end
$var wire 32 ;" rs1_data_i [31:0] $end
$var wire 1 . predict_i $end
$var wire 32 <" immediate_i [31:0] $end
$var wire 32 =" PC_i [31:0] $end
$var reg 2 >" ALUOp_o [1:0] $end
$var reg 1 Y ALUSrc_o $end
$var reg 1 X Branch_o $end
$var reg 1 W MemRead_o $end
$var reg 1 V MemWrite_o $end
$var reg 1 U MemtoReg_o $end
$var reg 32 ?" PC_o [31:0] $end
$var reg 1 S RegWrite_o $end
$var reg 3 @" funct3_o [2:0] $end
$var reg 7 A" funct7_o [6:0] $end
$var reg 32 B" immediate_o [31:0] $end
$var reg 1 O predict_o $end
$var reg 5 C" rd_addr_o [4:0] $end
$var reg 5 D" rs1_addr_o [4:0] $end
$var reg 32 E" rs1_data_o [31:0] $end
$var reg 5 F" rs2_addr_o [4:0] $end
$var reg 32 G" rs2_data_o [31:0] $end
$upscope $end
$scope module IF_ID $end
$var wire 1 H" Flush_i $end
$var wire 1 8 Stall_i $end
$var wire 1 ! clk_i $end
$var wire 1 I" flush_i $end
$var wire 32 J" instruction_i [31:0] $end
$var wire 32 K" PC_i [31:0] $end
$var reg 32 L" PC_o [31:0] $end
$var reg 32 M" instruction_o [31:0] $end
$upscope $end
$scope module Imm_Gen $end
$var wire 32 N" instruction_i [31:0] $end
$var wire 7 O" opcode [6:0] $end
$var wire 32 P" data_o [31:0] $end
$var reg 12 Q" immediate [11:0] $end
$upscope $end
$scope module Instruction_Memory $end
$var wire 32 R" instr_o [31:0] $end
$var wire 32 S" addr_i [31:0] $end
$upscope $end
$scope module MEMWB_Register $end
$var wire 32 T" ALU_result_i [31:0] $end
$var wire 1 b MemtoReg_i $end
$var wire 1 a RegWrite_i $end
$var wire 1 ! clk_i $end
$var wire 32 U" memory_data_i [31:0] $end
$var wire 5 V" rd_addr_i [4:0] $end
$var reg 32 W" ALU_result_o [31:0] $end
$var reg 1 F MemtoReg_o $end
$var reg 1 E RegWrite_o $end
$var reg 32 X" memory_data_o [31:0] $end
$var reg 5 Y" rd_addr_o [4:0] $end
$upscope $end
$scope module MUX_A $end
$var wire 32 Z" data1_i [31:0] $end
$var wire 32 [" data3_i [31:0] $end
$var wire 32 \" data4_i [31:0] $end
$var wire 2 ]" select_i [1:0] $end
$var wire 32 ^" data2_i [31:0] $end
$var reg 32 _" data_o [31:0] $end
$upscope $end
$scope module MUX_ALU $end
$var wire 32 `" data2_i [31:0] $end
$var wire 1 Y select_i $end
$var wire 32 a" data1_i [31:0] $end
$var reg 32 b" data_o [31:0] $end
$upscope $end
$scope module MUX_B $end
$var wire 32 c" data1_i [31:0] $end
$var wire 32 d" data3_i [31:0] $end
$var wire 32 e" data4_i [31:0] $end
$var wire 2 f" select_i [1:0] $end
$var wire 32 g" data2_i [31:0] $end
$var reg 32 h" data_o [31:0] $end
$upscope $end
$scope module MUX_PC_branch $end
$var wire 32 i" data1_i [31:0] $end
$var wire 32 j" data2_i [31:0] $end
$var wire 1 k" select_i $end
$var reg 32 l" data_o [31:0] $end
$upscope $end
$scope module MUX_PC_mispredict $end
$var wire 32 m" data1_i [31:0] $end
$var wire 32 n" data2_i [31:0] $end
$var wire 1 0 select_i $end
$var reg 32 o" data_o [31:0] $end
$upscope $end
$scope module MUX_WB $end
$var wire 32 p" data1_i [31:0] $end
$var wire 32 q" data2_i [31:0] $end
$var wire 1 F select_i $end
$var reg 32 r" data_o [31:0] $end
$upscope $end
$scope module PC $end
$var wire 1 > PCWrite_i $end
$var wire 1 ! clk_i $end
$var wire 32 s" pc_i [31:0] $end
$var wire 1 " rst_i $end
$var reg 32 t" pc_o [31:0] $end
$upscope $end
$scope module Registers $end
$var wire 5 u" RDaddr_i [4:0] $end
$var wire 32 v" RDdata_i [31:0] $end
$var wire 5 w" RS1addr_i [4:0] $end
$var wire 5 x" RS2addr_i [4:0] $end
$var wire 1 E RegWrite_i $end
$var wire 1 ! clk_i $end
$var wire 1 " rst_i $end
$var wire 32 y" RS2data_o [31:0] $end
$var wire 32 z" RS1data_o [31:0] $end
$var integer 32 {" i [31:0] $end
$upscope $end
$scope module branch_predictor $end
$var wire 1 X Branch_i $end
$var wire 1 ! clk_i $end
$var wire 1 7 result_i $end
$var wire 1 . predict_o $end
$var reg 2 |" state [1:0] $end
$upscope $end
$upscope $end
$upscope $end
$enddefinitions $end
#0
$dumpvars
b11 |"
bx {"
bx z"
bx y"
b0 x"
b0 w"
b0 v"
b0 u"
bx t"
bx s"
b0 r"
b0 q"
b0 p"
bx o"
b100 n"
bx m"
bx l"
0k"
bx j"
bx i"
b0 h"
b0 g"
b0 f"
b0 e"
b0 d"
b0 c"
b0 b"
b0 a"
b0 `"
b0 _"
b0 ^"
b0 ]"
b0 \"
b0 ["
b0 Z"
b0 Y"
b0 X"
b0 W"
b0 V"
b0 U"
b0 T"
bx S"
bx R"
bx Q"
bx P"
b0 O"
b0 N"
b0 M"
b0 L"
bx K"
bx J"
0I"
0H"
b0 G"
b0 F"
b0 E"
b0 D"
b0 C"
b0 B"
b0 A"
b0 @"
b0 ?"
b0 >"
b0 ="
bx <"
bx ;"
bx :"
b0 9"
b0 8"
b0 7"
b0 6"
b0 5"
b0 4"
b0 3"
b0 2"
b0 1"
b0 0"
b0 /"
b0 ."
b0 -"
b0 ,"
b0 +"
b0 *"
b0 )"
b0 ("
b0 '"
b0 &"
b0 %"
b0 $"
b0 #"
b0 ""
b100 !"
b0 ~
b0 }
b0 |
b0 {
b0 z
bx y
bx0 x
bx w
bx v
b100 u
b11 t
b0 s
b0 r
b0 q
b0 p
b11 o
b0 n
b0 m
b0 l
b11 k
b0 j
0i
b0 h
b0 g
0f
b0 e
0d
0c
0b
0a
b0 `
b0 _
b0 ^
b0 ]
b0 \
b0 [
b0 Z
0Y
0X
0W
0V
0U
b0 T
0S
b0 R
b0 Q
b0 P
0O
b0 N
b0 M
b0 L
b0 K
b0 J
b0 I
b0 H
b0 G
0F
0E
b0 D
b0 C
0B
0A
0@
0?
1>
bx =
bx <
b100 ;
bx :
09
08
17
bx 6
b0 5
b0 4
bx 3
bx 2
b0 1
00
b0 /
1.
b0 -
b0 ,
b0 +
bx *
b0 )
bx (
bx '
b0 &
b11 %
b100000 $
b0 #
1"
0!
$end
#6
b100 =
b100 o"
b100 s"
b110000010011 2
b110000010011 J"
b110000010011 R"
b100 :
b100 l"
b100 m"
b0 *
b0 ;"
b0 z"
b0 (
b0 :"
b0 y"
b100 6
b100 v
b100 i"
b0 <
b0 w
b0 K"
b0 S"
b0 t"
b100000 {"
0"
#12
1"
#25
b0 '
b0 y
b0 j"
b0 x
19
b11 j
b11 |
b11 4"
1i
b1000 =
b1000 o"
b1000 s"
b0 3
b0 <"
b0 P"
b0 Q"
b10011 O"
b10011 /
b10011 {
b11000 -
b11000 7"
b10000000000110100010011 2
b10000000000110100010011 J"
b10000000000110100010011 R"
b1000 :
b1000 l"
b1000 m"
b110000010011 H
b110000010011 M"
b110000010011 N"
1O
bx P
bx }
bx B"
bx `"
b1000 6
b1000 v
b1000 i"
b100 <
b100 w
b100 K"
b100 S"
b100 t"
b1 #
1!
#50
0!
#75
b1000 x
b1100 =
b1100 o"
b1100 s"
b100 3
b100 <"
b100 P"
b100 Q"
b11010 -
b11010 7"
b100 )
b100 #"
b100 9"
b100 x"
b10000000000111000010011 2
b10000000000111000010011 J"
b10000000000111000010011 R"
b1100 :
b1100 l"
b1100 m"
1Y
b11 Z
b11 s
b11 >"
1S
b0 P
b0 }
b0 B"
b0 `"
b11000 N
b11000 $"
b11000 *"
b11000 C"
b10000000000110100010011 H
b10000000000110100010011 M"
b10000000000110100010011 N"
b1100 '
b1100 y
b1100 j"
b100 I
b100 z
b100 ="
b100 L"
b1100 6
b1100 v
b1100 i"
b1000 <
b1000 w
b1000 K"
b1000 S"
b1000 t"
b10 #
1!
#100
0!
#125
b100 m
b100 g
b100 p
b100 ("
b10000 =
b10000 o"
b10000 s"
b11100 -
b11100 7"
07
b100 h
b100 n
b100 b"
b1000 ;
b1000 !"
b1000 n"
b11111111111100000000011110010011 2
b11111111111100000000011110010011 J"
b11111111111100000000011110010011 R"
b10000 :
b10000 l"
b10000 m"
b10000000000111000010011 H
b10000000000111000010011 M"
b10000000000111000010011 N"
b10000 '
b10000 y
b10000 j"
b1000 I
b1000 z
b1000 ="
b1000 L"
b100 P
b100 }
b100 B"
b100 `"
b11010 N
b11010 $"
b11010 *"
b11010 C"
b100 K
b100 0"
b100 F"
b100 T
b100 ~
b100 ?"
1a
b11000 `
b11000 ,"
b11000 ."
b11000 V"
b10000 6
b10000 v
b10000 i"
b1100 <
b1100 w
b1100 K"
b1100 S"
b1100 t"
b11 #
1!
#150
0!
#175
b11111111111111111111111111111110 x
b111110 (
b111110 :"
b111110 y"
b10100 =
b10100 o"
b10100 s"
b1100 ;
b1100 !"
b1100 n"
b11111111111111111111111111111111 3
b11111111111111111111111111111111 <"
b11111111111111111111111111111111 P"
b111111111111 Q"
b1111 -
b1111 7"
b11111 )
b11111 #"
b11111 9"
b11111 x"
b1111111 4
b1111111 6"
b11110011010000110010110011 2
b11110011010000110010110011 J"
b11110011010000110010110011 R"
b10100 :
b10100 l"
b10100 m"
1E
b11000 C
b11000 /"
b11000 Y"
b11000 u"
b100 e
b100 '"
b100 +"
b100 T"
b100 ["
b100 d"
b11010 `
b11010 ,"
b11010 ."
b11010 V"
b11100 N
b11100 $"
b11100 *"
b11100 C"
b1000 T
b1000 ~
b1000 ?"
b11111111111100000000011110010011 H
b11111111111100000000011110010011 M"
b11111111111100000000011110010011 N"
b1010 '
b1010 y
b1010 j"
b1100 I
b1100 z
b1100 ="
b1100 L"
b10100 6
b10100 v
b10100 i"
b10000 <
b10000 w
b10000 K"
b10000 S"
b10000 t"
b100 #
1!
#200
0!
#225
b0 x
0i
b10 j
b10 |
b10 4"
b100 *
b100 ;"
b100 z"
b111000 (
b111000 :"
b111000 y"
b11111 m
b11111111111111111111111111111111 g
b11111111111111111111111111111111 p
b11111111111111111111111111111111 ("
b11000 =
b11000 o"
b11000 s"
b0 3
b0 <"
b0 P"
b0 Q"
b110011 O"
b110011 /
b110011 {
b11001 -
b11001 7"
b11010 +
b11010 ""
b11010 8"
b11010 w"
b11100 )
b11100 #"
b11100 9"
b11100 x"
b1 4
b1 6"
b11111111111111111111111111111111 h
b11111111111111111111111111111111 n
b11111111111111111111111111111111 b"
b111110 [
b111110 )"
b111110 a"
b111110 h"
b10000 ;
b10000 !"
b10000 n"
b100 ,
b100 ^"
b100 g"
b100 r"
b100 v"
b11111111111111010000110100010011 2
b11111111111111010000110100010011 J"
b11111111111111010000110100010011 R"
b11000 :
b11000 l"
b11000 m"
b11110011010000110010110011 H
b11110011010000110010110011 M"
b11110011010000110010110011 N"
b10000 '
b10000 y
b10000 j"
b10000 I
b10000 z
b10000 ="
b10000 L"
b1111111 Q
b1111111 q
b1111111 A"
b11111111111111111111111111111111 P
b11111111111111111111111111111111 }
b11111111111111111111111111111111 B"
b11111111111111111111111111111111 `"
b1111 N
b1111 $"
b1111 *"
b1111 C"
b11111 K
b11111 0"
b11111 F"
b111110 J
b111110 G"
b111110 c"
b1100 T
b1100 ~
b1100 ?"
b11100 `
b11100 ,"
b11100 ."
b11100 V"
b11010 C
b11010 /"
b11010 Y"
b11010 u"
b100 G
b100 W"
b100 p"
b11000 6
b11000 v
b11000 i"
b10100 <
b10100 w
b10100 K"
b10100 S"
b10100 t"
b101 #
1!
#250
0!
#275
17
b100 m
b10000 g
b10000 p
b10000 ("
b11111111111111111111111111111110 x
b11 j
b11 |
b11 4"
1i
b111110 (
b111110 :"
b111110 y"
b11100 =
b11100 o"
b11100 s"
b101 k
b101 o
b101 t
b100 h
b100 n
b100 b"
b1 \
b1 3"
b1 f"
b100 [
b100 )"
b100 a"
b100 h"
b100 &
b100 l
b100 ]
b100 _"
b10100 ;
b10100 !"
b10100 n"
b11111111111111111111111111111111 3
b11111111111111111111111111111111 <"
b11111111111111111111111111111111 P"
b111111111111 Q"
b10011 O"
b10011 /
b10011 {
b11010 -
b11010 7"
b11111 )
b11111 #"
b11111 9"
b11111 x"
b1111111 4
b1111111 6"
b11001010110110000011 2
b11001010110110000011 J"
b11001010110110000011 R"
b11100 :
b11100 l"
b11100 m"
b11100 C
b11100 /"
b11100 Y"
b11100 u"
b11111111111111111111111111111111 e
b11111111111111111111111111111111 '"
b11111111111111111111111111111111 +"
b11111111111111111111111111111111 T"
b11111111111111111111111111111111 ["
b11111111111111111111111111111111 d"
b1111 `
b1111 ,"
b1111 ."
b1111 V"
b111110 _
b111110 &"
b111110 -"
0Y
b10 Z
b10 s
b10 >"
b1 Q
b1 q
b1 A"
b0 P
b0 }
b0 B"
b0 `"
b11001 N
b11001 $"
b11001 *"
b11001 C"
b11100 K
b11100 0"
b11100 F"
b11010 M
b11010 1"
b11010 D"
b111000 J
b111000 G"
b111000 c"
b100 L
b100 E"
b100 Z"
b10000 T
b10000 ~
b10000 ?"
b11111111111111010000110100010011 H
b11111111111111010000110100010011 M"
b11111111111111010000110100010011 N"
b10010 '
b10010 y
b10010 j"
b10100 I
b10100 z
b10100 ="
b10100 L"
b11100 6
b11100 v
b11100 i"
b11000 <
b11000 w
b11000 K"
b11000 S"
b11000 t"
b110 #
1!
#300
0!
#325
b0 x
b0 j
b0 |
b0 4"
1B
1@
b11111111111111111111111111100111 *
b11111111111111111111111111100111 ;"
b11111111111111111111111111100111 z"
b0 (
b0 :"
b0 y"
b11111 m
b11 g
b11 p
b11 ("
b100000 =
b100000 o"
b100000 s"
b0 3
b0 <"
b0 P"
b0 Q"
b11 O"
b11 /
b11 {
b11011 -
b11011 7"
b10 5
b10 5"
b11001 +
b11001 ""
b11001 8"
b11001 w"
b0 )
b0 #"
b0 9"
b0 x"
b0 4
b0 6"
b11 k
b11 o
b11 t
07
b11111111111111111111111111111111 h
b11111111111111111111111111111111 n
b11111111111111111111111111111111 b"
b11000 ;
b11000 !"
b11000 n"
b111110 [
b111110 )"
b111110 a"
b111110 h"
b0 \
b0 3"
b0 f"
b11111111111111111111111111111111 ,
b11111111111111111111111111111111 ^"
b11111111111111111111111111111111 g"
b11111111111111111111111111111111 r"
b11111111111111111111111111111111 v"
b1101111000000110000110011 2
b1101111000000110000110011 J"
b1101111000000110000110011 R"
b100000 :
b100000 l"
b100000 m"
b11001010110110000011 H
b11001010110110000011 M"
b11001010110110000011 N"
b11000 '
b11000 y
b11000 j"
b11000 I
b11000 z
b11000 ="
b11000 L"
1Y
b11 Z
b11 s
b11 >"
b1111111 Q
b1111111 q
b1111111 A"
b11111111111111111111111111111111 P
b11111111111111111111111111111111 }
b11111111111111111111111111111111 B"
b11111111111111111111111111111111 `"
b11010 N
b11010 $"
b11010 *"
b11010 C"
b11111 K
b11111 0"
b11111 F"
b111110 J
b111110 G"
b111110 c"
b10100 T
b10100 ~
b10100 ?"
b10000 e
b10000 '"
b10000 +"
b10000 T"
b10000 ["
b10000 d"
b11001 `
b11001 ,"
b11001 ."
b11001 V"
b100 _
b100 &"
b100 -"
b1111 C
b1111 /"
b1111 Y"
b1111 u"
b11111111111111111111111111111111 G
b11111111111111111111111111111111 W"
b11111111111111111111111111111111 p"
b100000 6
b100000 v
b100000 i"
b11100 <
b11100 w
b11100 K"
b11100 S"
b11100 t"
b111 #
1!
#350
0!
#375
b0 m
b10000 g
b10000 p
b10000 ("
09
0@
0B
0i
b0 *
b0 ;"
b0 z"
b11111111111111111111111111100101 (
b11111111111111111111111111100101 :"
b11111111111111111111111111100101 y"
b100100 =
b100100 o"
b100100 s"
b10000 ,
b10000 ^"
b10000 g"
b10000 r"
b10000 v"
b0 h
b0 n
b0 b"
1?
18
0>
b1 ^
b1 2"
b1 ]"
b0 [
b0 )"
b0 a"
b0 h"
b10000 &
b10000 l
b10000 ]
b10000 _"
b11100 ;
b11100 !"
b11100 n"
b110011 O"
b110011 /
b110011 {
b11000 -
b11000 7"
b0 5
b0 5"
b11000 +
b11000 ""
b11000 8"
b11000 w"
b11011 )
b11011 #"
b11011 9"
b11011 x"
b111111010000010001100011 2
b111111010000010001100011 J"
b111111010000010001100011 R"
b100100 :
b100100 l"
b100100 m"
b11001 C
b11001 /"
b11001 Y"
b11001 u"
b10000 G
b10000 W"
b10000 p"
b11 e
b11 '"
b11 +"
b11 T"
b11 ["
b11 d"
b11010 `
b11010 ,"
b11010 ."
b11010 V"
b111110 _
b111110 &"
b111110 -"
b0 Z
b0 s
b0 >"
1W
1U
b0 Q
b0 q
b0 A"
b10 R
b10 r
b10 @"
b0 P
b0 }
b0 B"
b0 `"
b11011 N
b11011 $"
b11011 *"
b11011 C"
b0 K
b0 0"
b0 F"
b11001 M
b11001 1"
b11001 D"
b0 J
b0 G"
b0 c"
b11111111111111111111111111100111 L
b11111111111111111111111111100111 E"
b11111111111111111111111111100111 Z"
b11000 T
b11000 ~
b11000 ?"
b1101111000000110000110011 H
b1101111000000110000110011 M"
b1101111000000110000110011 N"
b11100 '
b11100 y
b11100 j"
b11100 I
b11100 z
b11100 ="
b11100 L"
b100100 6
b100100 v
b100100 i"
b100000 <
b100000 w
b100000 K"
b100000 S"
b100000 t"
b1000 #
1!
#400
0!
#425
b10000 m
b10 j
b10 |
b10 4"
19
b10000 h
b10000 n
b10000 b"
0?
08
1>
b100000 ;
b100000 !"
b100000 n"
b11101 1
b11101 %"
b11101 U"
07
b0 &
b0 l
b0 ]
b0 _"
b10000 [
b10000 )"
b10000 a"
b10000 h"
b10 \
b10 3"
b10 f"
b0 ^
b0 2"
b0 ]"
b11 ,
b11 ^"
b11 g"
b11 r"
b11 v"
0Y
0W
0U
0S
b0 R
b0 r
b0 @"
b11000 N
b11000 $"
b11000 *"
b11000 C"
b11011 K
b11011 0"
b11011 F"
b11000 M
b11000 1"
b11000 D"
b11111111111111111111111111100101 J
b11111111111111111111111111100101 G"
b11111111111111111111111111100101 c"
b0 L
b0 E"
b0 Z"
b11100 T
b11100 ~
b11100 ?"
1d
1b
b10000 e
b10000 '"
b10000 +"
b10000 T"
b10000 ["
b10000 d"
b11011 `
b11011 ,"
b11011 ."
b11011 V"
b0 _
b0 &"
b0 -"
b11010 C
b11010 /"
b11010 Y"
b11010 u"
b11 G
b11 W"
b11 p"
b1001 #
1!
#450
0!
#475
b11101 m
b11101 g
b11101 p
b11101 ("
1I"
1H"
b11101 h
b11101 n
b11101 b"
1k"
b11101 [
b11101 )"
b11101 a"
b11101 h"
b1000 x
09
b1 j
b1 |
b1 4"
1f
b11 *
b11 ;"
b11 z"
b11111111111111111111111111111111 (
b11111111111111111111111111111111 :"
b11111111111111111111111111111111 y"
b101000 =
b101000 o"
b101000 s"
b11101 ,
b11101 ^"
b11101 g"
b11101 r"
b11101 v"
b0 1
b0 %"
b0 U"
b1 \
b1 3"
b1 f"
b100 3
b100 <"
b100 P"
b100 Q"
b1100011 O"
b1100011 /
b1100011 {
b1000 -
b1000 7"
b11010 +
b11010 ""
b11010 8"
b11010 w"
b1111 )
b1111 #"
b1111 9"
b1111 x"
b11111110000000000000011011100011 2
b11111110000000000000011011100011 J"
b11111110000000000000011011100011 R"
b101000 :
b101000 l"
b101000 m"
1F
b11011 C
b11011 /"
b11011 Y"
b11011 u"
b11101 D
b11101 X"
b11101 q"
b10000 G
b10000 W"
b10000 p"
0d
0b
0a
b11000 `
b11000 ,"
b11000 ."
b11000 V"
b10000 _
b10000 &"
b10000 -"
b10 Z
b10 s
b10 >"
1S
b111111010000010001100011 H
b111111010000010001100011 M"
b111111010000010001100011 N"
b101000 '
b101000 y
b101000 j"
b100000 I
b100000 z
b100000 ="
b100000 L"
b101000 6
b101000 v
b101000 i"
b100100 <
b100100 w
b100100 K"
b100100 S"
b100100 t"
b1010 #
1!
#500
0!
#525
0k"
0f
b0 j
b0 |
b0 4"
b0 *
b0 ;"
b0 z"
b0 (
b0 :"
b0 y"
b11111 m
b100 g
b100 p
b100 ("
b100100 =
b100100 o"
b100100 s"
b0 O"
b0 /
b0 {
b0 -
b0 7"
b0 +
b0 ""
b0 8"
b0 w"
b0 )
b0 #"
b0 9"
b0 x"
10
b100 k
b100 o
b100 t
b11111111111111111111111111111111 h
b11111111111111111111111111111111 n
b11111111111111111111111111111111 b"
b100100 ;
b100100 !"
b100100 n"
b11 &
b11 l
b11 ]
b11 _"
b11111111111111111111111111111111 [
b11111111111111111111111111111111 )"
b11111111111111111111111111111111 a"
b11111111111111111111111111111111 h"
b0 \
b0 3"
b0 f"
b10000 ,
b10000 ^"
b10000 g"
b10000 r"
b10000 v"
b1100000000010111000100011 2
b1100000000010111000100011 J"
b1100000000010111000100011 R"
b101100 :
b101100 l"
b101100 m"
b0 H
b0 M"
b0 N"
b1000 '
b1000 y
b1000 j"
b0 I
b0 z
b0 ="
b0 L"
1X
b1 Z
b1 s
b1 >"
0S
b100 P
b100 }
b100 B"
b100 `"
b1000 N
b1000 $"
b1000 *"
b1000 C"
b1111 K
b1111 0"
b1111 F"
b11010 M
b11010 1"
b11010 D"
b11111111111111111111111111111111 J
b11111111111111111111111111111111 G"
b11111111111111111111111111111111 c"
b11 L
b11 E"
b11 Z"
b100000 T
b100000 ~
b100000 ?"
1a
b11101 e
b11101 '"
b11101 +"
b11101 T"
b11101 ["
b11101 d"
b11101 _
b11101 &"
b11101 -"
0F
0E
b11000 C
b11000 /"
b11000 Y"
b11000 u"
b0 D
b0 X"
b0 q"
b101100 6
b101100 v
b101100 i"
b101000 <
b101000 w
b101000 K"
b101000 S"
b101000 t"
b1011 #
1!
#550
0!
